{
    "title": "demo_question",
    "user": "Sahique_demo_questions",
    "answers": {
        "What crops did you cultivivate the last two years? Multiple selections possible.": [
            "Wheat",
            "rice"
        ]
    }
}